{
    "common": {
        "save": "שמירה",
        "cancel": "ביטול",
        "later": "אמלא אחר כך",
        "next": "הבא",
        "prev": "הקודם",
        "submit": "שליחה",
        "firstName": "שם פרטי",
        "lastName": "שם משפחה",
        "required": "חובה",
        "errorHeader": "משהו השתבש, אנא נסו שנית",
        "okay": "אוקיי",
        "unknownFailure": "משהו השתבש",
        "coach": "מאמן/ת",
        "letsGo": "קדימה, נתחיל!",
        "me": "אני",
        "showAllFriends": "הצג את כל החברים",
        "drawer": {
            "close": "סגור",
            "done": "סיימתי",
            "back": "חזור",
            "yourFriends": "החברים שלך",
            "booked": "רשומים לשיעור",
            "inviteToSchedule": "הזמן לשיעור",
            "noFriendsToInvite": "יש להוסיף חברים על מנת להזמינם לשיעור",
            "activities": "פעולות",
            "sayThanks": "אמור תודה",
            "booking": {
                "booked": "רשום",
                "description": "תיאור",
                "error": "אופס..."
            }
        },
        "toast": {
            "scheduleCancel": "הרשמתך לשיעור בוטלה",
            "standByCancel": "הוסרת מרשימת ההמתנה",
            "scheduleInsert": "הרשמתך לשיעור בוצעה בהצלחה",
            "standByInsert": "נוספת לרשימת ההמתנה"
        },
        "membership": {
            "status0": "לא פעיל",
            "status1": "פעיל",
            "status2": "עתידי"
        },
        "validators": {
            "email": "נא להזין כתובת מייל",
            "emailInvalid": "מייל לא תקין"
        },
        "serverErrors": {
            "noActiveBoxes": "לא נמצאו מועדונים פעילים",
            "inCorrectLoginDetails": "הפרטים שהוזנו שגויים",
            "maxLoginTries": "הגעת למקסימום ניסיונות לשעה"

        }
    },
    "timing": {
        "time": "לפני {{time}} {{unit}}",
        "minute": "דקה",
        "minutes": "דקות",
        "hour": "שעה",
        "hours": "שעות",
        "day": "יום",
        "days": "ימים"
    },
    "general": {
        "noSchedulesFound": "אפשר לנוח.. לא נמצאו שיעורים"
    },
    "headings": {
        "your-clubs": "המועדונים שלי",
        "personal-details": "פרטים אישיים",
        "your-friends": "החברים שלי",
        "friend-friends": "החברים של {{friend}} ",
        "friend-bookings": "השיעורים של {{friend}}",
        "search-friend-result": "{{numOfResult}} תוצאות חיפוש עבור {{searchName}}",
        "search-friend-show-friends": "החברים שלי",
        "search-for-friends": "חיפוש חברי מועדון",
        "about": "אודות {{friend}}"
    },
    "modals": {
        "Buy": {
            "purchase-successful": "רכישה בוצעה בהצלחה",
            "texts": {
                "your-purchase-of": "תודה שרכשת",
                "at": "ב",
                "is-successful": ""
            }
        },
        "Card": {
            "class-information": "פרטי שיעור",
            "cancel": "ביטול",
            "confirm": "הרשמה",
            "got-it": "הבנתי",
            "keep-it-on": "לא",
            "yes-remove": "כן",
            "add-to-waitlist": "הצטרפות לרשימת המתנה",
            "yes-remove-me": "כן, בטל",
            "no-keep-me": "לא"
        },
        "ChooseClub": {
            "title": "המועדונים שלי",
            "heading": ""
        },
        "BookClass": {
            "title": "רישום לשיעור",
            "heading": "רישום לשיעור",
            "choose-membership": "בחירת חברות לחיוב",
            "booking-successful": "הרישום בוצע בהצלחה",
            "add-in-calendar": "הוספת תזכורת ליומן",
            "invitation-successful": "הזמנה נשלחה",
            "invite-friends": "הזמנת חברים לשיעור",
            "invite-friends-to-training": "בחירת חברים להזמנה",
            "invite-text": " ",
            "invite": "הזמן",
            "invited": "הוזמן/ה",
            "booked": "כבר בשיעור",
            "class": "שיעור",
            "no-memberships-found": "לא נמצאו חברויות בתוקף",
            "texts": {
                "you-are-booking": "",
                "class-with": "",
                "on": "בתאריך:",
                "at": "בשעה:",
                "you-have-booked-for": "",
                "your-invitation-for": "",
                "sent-successfully": "הזמנה נשלחה בהצלחה",
                "selected-friends": "בחירת חברים",
                "slots-left": "מקומות פנויים נותרו",
                "search-placeholder": "חיפוש לפי שם"
            }
        },
        "SaveRM": {
            "title": "הוסף RM",
            "header": "יש למלא את השדות מטה לתיעוד RM",
            "repetitionMaximum": "RM",
            "saveRM": "שמור RM"
        },
        "CancelClass": {
            "title": "ביטול רישום",
            "heading": "הרישום לשיעור הבא יבוטל",
            "are-you-sure": "",
            "on": "",
            "non-refundable": "לא ניתן לקבל החזר עבור השיעור",
            "are-you-sure-text": "האם לבטל את הרשמתך לשיעור?"
        },
        "AddToWaitlist": {
            "title": "הצטרפות לרשימת המתנה",
            "you-will": "לצרף אותך לרשימת המתנה?",
            "on-waitlist": "מחכים לפניך",
            "booked": "רשומים לפניך",
            "in-line": ""
        },
        "RemoveFromWaitlist": {
            "title": "הסרה מרשימת המתנה",
            "remove-from-list": "האם לבטל את הרישום לרשימת ההמתנה לשיעור?",
            "are-you-sure": " "
        },
        "ClassParticipants": {
            "title": "רשומים לשיעור {{className}}",
            "add-friend": "הוספה לחברים",
            "is-friend": "חברים",
            "sent-friend": "הבקשה נשלחה"
        },
        "FriendsList": {
            "muetralClubs": "{{count}} מועדונים משותפים"
        }
    },
    "screens": {
        "DigitalForms": {
            "yes": "כן",
            "no": "לא",
            "questionHeader": "שאלה {{num}} מתוך {{size}}",
            "required": "(חובה)",
            "optional": "(רשות)",
            "summary": {
                "title": "מעולה",
                "message": "סיימת למלא את הטופס",
                "button": "סיימתי"
            },
            "signature": {
                "info": "השתמש באצבע לחתימה",
                "retry": "נסה שנית"
            }
        },
        "OnBoarding": {
            "letsChangePassword": "הישארו בטוחים",
            "letsChangePasswordText": "למען אבטחת החשבון שלכם, ביחרו סיסמה חדשה בת 6 תווים לפחות.",
            "currentPassword": "סיסמה נוכחית",
            "newPassword": "סיסמה חדשה",
            "retypePassword": "",
            "passwordRequired": "חובה להזין סיסמה",
            "passwordMinChar": "הסיסמה חייבת להכיל לפחות {{min}} תווים",
            "passwordNotMatch": "הסיסמאות לא תואמות",
            "bioMaxChar": "ניתן להזין עד {{max}} תווים",
            "bioPlaceholder": "כמה מילים עליי",
            "personalDetailsTitle": "הפרופיל שלי",
            "bioLabel": "קצת עלי",
            "firstName": "שם פרטי",
            "lastName": "שם משפחה",
            "setUserPicture": "תמונת פרופיל",
            "setUserPictureText": "בחרו תמונה.. אבל טובה",
            "startConnectionFriends": "כיף יותר להתאמן ביחד",
            "startConnectionFriendsText": "שתפו את החברים בשיעורים הקרובים שלכם והזמינו אותם להתאמן יחד איתכם!"
        },
        "Login": {
            "welcome": "שמחים שחזרת",
            "welcomeText": "אנחנו צריכים את פרטי ההתחברות שלך",
            "email": "מייל",
            "password": "סיסמה",
            "login": "התחברות",
            "forgot-password": "שכחתי סיסמה",
            "terms": "מדיניות פרטיות ותנאי שימוש"
        },
        "ForgotPassword": {
            "button": "איפוס סיסמה",
            "title": "מהי כתובת המייל עבורה יש לאפס סיסמה?",
            "success": "קישור לאיפוס הסיסמה נשלח למייל שלכם"
        },
        "Home": {
            "title": "",
            "hey": "היי",
            "welcome": "טוב לראות אותך",
            "instruction": "",
            "feedEmptyTitle": "הפיד שלך ריק",
            "feedEmptyMessage": "זה הזמן להרשם לשיעור חדש דרך לוח השיעורים",
            "welcomeTo": "ברוך הבא ל-{{boxName}}",
            "cards": {
                "epidemic-card": {
                    "title": "הצהרת בריאות יומית - קורונה",
                    "content": "יש לאשר את הצהרה יומית זו בטרם הגיעך למועדון",
                    "action-button": "למילוי הטופס",
                    "drawer": {
                        "header": "הצהרת בריאות יומית",
                        "text": "ההני מצהיר כי:",
                        "text1": "1. אינני מחוייב להיות בבידוד לפי הוראות החוק",
                        "text2": "2. במהלך השבוע האחרון ועד היום (כולל), חום גופי היה נמוך מ-38 מעלות צלסיוס.",
                        "text3": "3. אינני משתעל (למעט שיעול כרוני).",
                        "text4": "4. לא הייתי במגע קרוב לחולה קורונה בשבועיים האחרונים",
                        "approve-checkbox": "הנני מצהיר כי כל הכתוב לעיל נכון.",
                        "approve-button": "אני מאשר",
                        "not-approve-button": "לא מאשר",
                        "toast-message": "הצהרת הבריאות נשמרה בהצלחה"
                    }
                },
                "welcome-card": {
                    "title": "מתרגשים לראות אותך פה בפעם הראשונה!",
                    "content": "ארבוקס פה כדי לנהל את כל הקשר שלך עם המועדונים והחברים שמתאמנים איתך. זה הזמן לגלות את האפליקציה, לעדכן פרופיל, להוסיף חברים וכמובן להירשם לשיעורים. יאללה יוצאים לדרך!"
                },
                "instruction-card": {
                    "title": "זה ה-Feed הדינאמי שלך",
                    "content": "הפיד של ארבוקס מציג את כל מה שרלוונטי לך עכשיו. החלק את הכרטיסייה הצידה כדי לראות איך זה עובד!"
                },
                "club-message-card": {
                    "title": "המועדון {{clubName}} פרסם עדכון חדש",
                    "time": "לפני {{time}} {{unit}} ",
                    "message": ""
                },
                "status-card": {
                    "title": "סיכום הפעילות שלך",
                    "content": "",
                    "feature-training": "רישומים עתידיים",
                    "accomplished-training": "שיעורים שהשתתפת בהם",
                    "average-training": "ממוצע שיעורים לשבוע",
                    "last-30-days": "ב-30 ימים האחרונים"
                },
                "renew-card": {
                    "title": "תזכורת קטנה",
                    "content": "חידוש מנוי",
                    "btn-name": "חידוש מנוי"
                },
                "reminder-card": {
                    "title": "תזוכרת קטנה",
                    "content": "נותרו {{punch_left}} כניסות בכרטיסייה",
                    "btn-name": "הוספת כניסות"
                },
                "ending-session": {
                    "big-sub-title": "נותרו {{sessionsLeft}} כניסות",
                    "content": "בכרטיסיית {{membershipName}} נותרו רק {{sessionsLeft}} כניסות!",
                    "end-date": "."
                },
                "ending-plan": {
                    "big-sub-title": "נותרו {{days}} ימים",
                    "content": "המנוי {{membershipName}} של {{boxName}} מסתיים בקרוב. המנוי פעיל רק עד ל- {{endDate}}."
                },
                "birthday-card": {
                    "title": "המועדון והחברים שלך מאחלים לך!",
                    "content": "שנה של כושר, בריאות ואושר ליום הולדתך!"
                },
                "friend-birthday-card": {
                    "title": "ל{{userName}} יש יום הולדת היום!",
                    "message": "שנחגוג לו עם קצת בלונים?",
                    "action-button": "שליחת בלון"
                },
                "balloons-card": {
                    "title": "קיבלת בלון יום הולדת מ- {{userName}}",
                    "title_plural": "{{userName}} ועוד {{numOfUsers}} חברים נוספים שלחו לך בלוני יום הולדת",
                    "thanked": "{{userName}} מודה לך על הבלון ששלחת",
                    "message": "ניתן להודות לחברים על הבלונים ששלחו באמצעות לחיצה על תמונות הפרופיל",
                    "toast": "הבלון נשלח",
                    "modal": {
                        "thanks": "תודה",
                        "thanked": "תודה נשלחה",
                        "friends-list-modal-title": "{{numOfUsers}} חברים שלחו לך בלון",
                        "friends-profile-modal-content": "",
                        "modal-button-view-profile": "צפייה בפרופיל",
                        "modal-button-friend-request-send": "שליחת בקשת חברות",
                        "freiend-request-success-modal-title": "בקשת החברות נשלחה",
                        "freiend-request-success-modal-content-left": " ",
                        "freiend-request-success-modal-content-right": " .",
                        "freiend-request-success-modal-action-button-text": ""
                    }
                },
                "friend-request": {
                    "title": "קיבלת מ- {{userName}} בקשת חברות",
                    "message": "",
                    "accept-button": "אישור הבקשה",
                    "toast": "החברות אושרה!",
                    "reject": "לא, תודה"
                },
                "friend-request-accepted": {
                    "title": "{{userName}} אישר את בקשת החברות שלך!",
                    "message": "כעת תוכלו להזמין אחד את השני לשיעורים",
                    "accept-button": "צפה בפרופיל"
                },
                "upcoming-schedules": {
                    "title": "השיעור הבא יתחיל בעוד {{time}} {{unit}}",
                    "content": "השיעור {{scheduleName}} שמתקיים ב-{{boxName}} יתחיל בעוד {{time}} {{unit}}",
                    "button": "ביטול רישום"
                },
                "cancel-schedules": {
                    "title": "מתנצלים, השיעור אליו נרשמת בוטל",
                    "content": "{{boxName}} ביטלו את {{scheduleName}} שהיה אמור להתקיים ב {{date}} בשעה {{time}}"
                },
                "stand-by-entered": {
                    "title": "התפנה מקום בשיעור!",
                    "content": "{{boxName}} אישרו שהתפנה מקום בשיעור {{scheduleName}} בתאריך {{date}} בשעה {{time}}. לא מסתדר לך להגיע? מומלץ לבטל את הרישום ולפנות את המקום להבא בתור.",
                    "button": "ביטול רישום "
                },
                "medical-card": {
                    "big-sub-title": "הצהרת הבריאות שלך חסרה",
                    "name": "יש למלא את {{name}}",
                    "action-button": "למילוי הטופס",
                    "content": "עדיין לא מסרת הצהרת בריאות ל {{boxName}}. הצהרת בריאות היא מסמך חשוב ובלעדיה ייתכן והמועדון יגביל את האפשרות שלך להירשם לשיעורים."
                },
                "invite-schedule": {
                    "title": "{{userName}} רוצה להתאמן איתך"
                }
            }
        },
        "Profile": {
            "title": "פרופיל",
            "edit-profile": "עריכה",
            "save": "שמירה",
            "cancel": "ביטול",
            "features": {
                "birthday": "יום הולדת",
                "location": "מיקום",
                "weight": "משקל",
                "phone": "טלפון",
                "height": "גובה",
                "gender": "מגדר",
                "firstName": "שם פרטי",
                "lastName": "שם משפחה",
                "bio-placeholder": "כמה מילים על עצמך. ניתן להזין עד {{max}} תווים",
                "bio": "קצת עלי",
                "birthday-placeholder": "הזן תאריך לידה",
                "birthday-no-value": "לא הוזן"
            },
            "inactive": "לא פעיל",
            "active": "פעיל",
            "show-all": "הציגו את כל החברים",
            "fold": "צמצמו את הרשימה"
        },
        "FriendProfile": {
            "add-friend": "הוספה לחברים",
            "unfriend": "הסרה מחברים",
            "birthday": "יום הולדת",
            "today": "היום!",
            "send-balloons": "שליחת בלון",
            "sent-balloons": "בלון נשלח",
            "friend-birthday": "היום יום ההולדת של {{friend}}",
            "add-friend-info": "הוסיפו את {{friend}} לרשימת החברים על מנת שתוכלו לשתף ולהזמין אחד את השני לשיעורים הקרובים שלכם",
            "no-schedules": "לא נמצאו שיעורים בימים הקרובים",
            "no-friends": "אין חברים",
            "schedule-join": "הצטרף",
            "schedule-joined": "בשיעור",
            "schedule-waitlisted": "בהמתנה",
            "friends-of": "החברים של {{userName}}"
        },
        "More": {
            "title": "תפריט",
            "clubs": {
                "title": "המועדונים שלי",
                "classes-history": {
                    "title": "",
                    "used-punches-tab": "{{pastClasses}} שהיו",
                    "future-classes-tab": "{{futureClasses}} עתידיים",
                    "late-cancel-tab": "{{lateCancellation}} ביטולים מאוחרים"
                }
            },
            "logbook": "Logbook",
            "settings": {
                "title": "הגדרות",
                "button": "הגדרות",
                "notifications": {
                    "title": "התראות"
                },
                "account": {
                    "name": "החשבון שלי",
                    "properties": {
                        "password": "עדכון סיסמה",
                        "updatePassword": "עדכון סיסמה"
                    },
                    "descriptions": {
                        "privateYourProfile": ""
                    }
                },
                "preferences": {
                    "name": "העדפות",
                    "properties": {
                        "language": "שפת האפליקציה"
                    }
                },
                "arboxSupport": "התמיכה של Arbox",
                "mailSupport": "פנייה לתמיכה במייל",
                "termsOfUse": "תנאי שימוש ומדיניות פרטיות",
                "privacyTerms": "תקנות פרטיות",
                "save": "שמירה"
            },
            "logout": "התנתקות"
        },
        "ClubProfile": {
            "membershipNoEndDate": "ללא תאריך סיום",
            "membershipEndsAt": "בתוקף עד ל- {{endDate}}",
            "membershipStartsAtEndsAt": "{{startDate}} - {{endDate}}",
            "membershipSessionsLeft": "נותרו {{sessionsLeft}} כניסות בכרטיסייה",
            "membershipListSessionsLeft": "נותרו {{sessionsLeft}} כניסות",
            "membershipHasHolds": "ימי הקפאה - {{holds}} ימים",
            "membershipFutureSchedules": "{{schedules}} רישומים עתידיים",
            "membershipScreen": "לצפייה בניצול החברות",
            "membershipStartsAt": "החברות תתחיל ב- {{startDate}}",
            "features": {
                "membership-type": "סוג חברות",
                "holes-in-loyalty": "כניסות שנותרו",
                "start-date": "תאריך התחלה",
                "membership-end": "תאריך סיום",
                "upcoming-training": "שיעורים עתידיים"
            }
        },
        "Schedule": {
            "title": "לוח שיעורים",
            "my-classes": "השיעורים שלי",
            "class-schedule": "לוח שיעורים",
            "live_link": "לשיעור",
            "card": {
                "coach": "מועבר על ידי {{coach}}",
                "slots": "{{slots}} מקומות פנוים",
                "going": "{{going}} רשומים",
                "on-waitlist": "השיעור מלא! {{waitlisted}} ברשימת ההמתנה",
                "online-class": "שיעור אונליין",
                "late-cancel": "ביטול מאוחר",
                "booked": "רשום",
                "in-waitlist": "ברשימת המתנה",
                "class-full": "השיעור מלא"
            }
        },
        "Logbook": {
            "chooseYourSkill": "איזה תרגיל נרצה לתעד?",
            "sorryPart1": "מצטערים, לא הצלחנו למצוא",
            "sorryPart2": "את התרגיל שחיפשת",
            "resultsFound": "תוצאות נמצאו",
            "startSearching": "ניתן להשתמש בחיפוש למעלה למציאת התרגיל הרצוי",
            "log": "תיעוד אימון",
            "leaderboard": "לוח תוצאות",
            "noResultsFound": "לא נמצאו תוצאות",
            "repeatMaximum": "Repeat Maximum",
            "addMyRMs": "הוספת RM",
            "search": "חיפוש תרגילים",
            "AddWorkout": {
                "title": "הוספת תוצאות",
                "howLongItTook": "כמה זמן זה לקח?",
                "howManyRounds": "כמה חזרות?",
                "addNotes": "הוספת הערות",
                "notePlaceholder": "פה ניתן להוסיף הערות",
                "save": "שמירה",
                "extraReps": "חזרות נוספות?",
                "toesToBar": ""
            }
        }
    }
}